function,val0,val1,val2,val3,val4,val5,val6
0,0,0.2,0,0.3,0,0,0.5
1,0.2,0.2,0,0.2,0,0,0.4
2,0,0.3,0,0,0,0,0.7
3,0.5,0,0,0.5,0,0,0
4,0.2,0.2,0,0.2,0,0,0.4
5,0.1,0,0.4,0.4,0.1,0,0
6,0.5,0,0,0.5,0,0,0
7,0.4,0,0.1,0,0.5,0,0
8,0.3,0,0,0,0.7,0,0
9,0.4,0,0.3,0.3,0,0,0
10,0,0,0.2,0.3,0.2,0,0.3
11,0,0,0,0,0,1,0
12,0,0,0.3,0.2,0.2,0,0.3
13,0,0,0.2,0.3,0.2,0,0.3
14,0.2,0,0.4,0,0.4,0,0
15,0,0,0.3,0.2,0.1,0,0.4
