0,4,vis,0.7
0,4,cls,0.7
0,1,vis,0.5
0,1,cls,0.5
1,4,vis,0.8
1,4,cls,0.9
2,4,vis,0.2
2,4,cls,0.2
5,6,cls,0.7
5,6,vis,1
5,9,cls,0.7
5,9,vis,1
5,3,cls,0.5
5,3,vis,0.5
8,7,cls,0.7
8,12,cls,0.5
12,13,cls,0.7
12,15,cls,0.7
13,15,cls,0.7
13,14,cls,0.7
11,1,cls,0.8
11,15,cls,0.5
10,0,cls,0.6
10,3,cls,0.6
3,12,cls,0.6
3,14,cls,0.6
2,15,cls,0.6
2,13,cls,0.6
2,13,cls,0.6
1,9,cls,0.6
